﻿{
  "Id": "RedBaron",
  "DisplayName": "Red Baron",
  "Author": "Oldark",
  "Version": "1.1.4",
  "Requires": [],
  "Enable": true,
  "AssemblyName": "RedBaron.dll",
  "EntryMethod": "RedBaron.MainPatcher.Patch",
  "Config": {}
}
